…
  ..   Year = col_double()
  .. )
 - attr(*, "problems")=<externalptr> 
> colSums(is.na(df))
             Film             Genre       Lead Studio 
                0                 0                 1 
Audience  score %     Profitability Rotten Tomatoes % 
                1                 3                 1 
  Worldwide Gross              Year 
                0                 0 
> View(HollywoodsMostProfitableStories)
> View(HollywoodsMostProfitableStories)
> View(df)
> na.omit(df)
# A tibble: 69 × 8
   Film     Genre Lead …¹ Audie…² Profi…³ Rotte…⁴ World…⁵
   <chr>    <chr> <chr>     <dbl>   <dbl>   <dbl>   <dbl>
 1 27 Dres… Come… Fox          71   5.34       40  160.  
 2 (500) D… Come… Fox          81   8.10       87   60.7 
 3 A Dange… Drama Indepe…      89   0.449      79    8.97
 4 A Serio… Drama Univer…      64   4.38       89   30.7 
 5 Across … Roma… Indepe…      84   0.653      54   29.4 
 6 Beginne… Come… Indepe…      80   4.47       84   14.3 
 7 Dear Jo… Drama Sony         66   4.60       29  115.  
 8 Enchant… Come… Disney       80   4.01       93  340.  
 9 Firepro… Drama Indepe…      51  66.9        40   33.5 
10 Four Ch… Come… Warner…      52   2.02       26  162.  
# … with 59 more rows, 1 more variable: Year <dbl>, and
#   abbreviated variable names ¹​`Lead Studio`,
#   ²​`Audience  score %`, ³​Profitability,
#   ⁴​`Rotten Tomatoes %`, ⁵​`Worldwide Gross`
# ℹ Use `print(n = ...)` to see more rows, and `colnames()` to see all variable names
…
6 Beginners Come… Indepe…      80   4.47       84   14.3 
# … with 1 more variable: Year <dbl>, and abbreviated
#   variable names ¹​`Lead Studio`, ²​`Audience  score %`,
#   ³​Profitability, ⁴​`Rotten Tomatoes %`,
#   ⁵​`Worldwide Gross`
# ℹ Use `colnames()` to see all variable names
> colSums(is.na(df))
             Film             Genre       Lead Studio 
                0                 0                 1 
Audience  score %     Profitability Rotten Tomatoes % 
                1                 3                 1 
  Worldwide Gross              Year 
                0                 0 
> df %>% drop_na()
# A tibble: 69 × 8
   Film     Genre Lead …¹ Audie…² Profi…³ Rotte…⁴ World…⁵
   <chr>    <chr> <chr>     <dbl>   <dbl>   <dbl>   <dbl>
 1 27 Dres… Come… Fox          71   5.34       40  160.  
 2 (500) D… Come… Fox          81   8.10       87   60.7 
 3 A Dange… Drama Indepe…      89   0.449      79    8.97
 4 A Serio… Drama Univer…      64   4.38       89   30.7 
 5 Across … Roma… Indepe…      84   0.653      54   29.4 
 6 Beginne… Come… Indepe…      80   4.47       84   14.3 
 7 Dear Jo… Drama Sony         66   4.60       29  115.  
 8 Enchant… Come… Disney       80   4.01       93  340.  
 9 Firepro… Drama Indepe…      51  66.9        40   33.5 
10 Four Ch… Come… Warner…      52   2.02       26  162.  
# … with 59 more rows, 1 more variable: Year <dbl>, and
#   abbreviated variable names ¹​`Lead Studio`,
#   ²​`Audience  score %`, ³​Profitability,
#   ⁴​`Rotten Tomatoes %`, ⁵​`Worldwide Gross`
# ℹ Use `print(n = ...)` to see more rows, and `colnames()` to see all variable names
…
Error: unexpected '(' in "df1<-subset(no_outliers, no_outliers$("
> df1<-subset(no_outliers, no_outliers$`Worldwide Gross`>(Q1a-1.5IQRa) & no_outliers$`Worldwide Gross`<(Q3a+1.5*IQRa))
Error: unexpected symbol in "df1<-subset(no_outliers, no_outliers$`Worldwide Gross`>(Q1a-1.5IQRa"
> df1<-subset(no_outliers, no_outliers$`Worldwide Gross`>(Q1a-1.5*IQRa) & no_outliers$`Worldwide Gross`<(Q3a+1.5*IQRa))
> dim(df1)
[1] 63  8
> View(df1)
> ggplot(df1,aes(x='Lead Studio', y='Rotten Tomatoes'..))+geom_point()+scale_y_continuous(labels=scales::comma)+coord_cartesian(ylim=c(0,110))+theme(axis.text.x=element_text(angle=90))
Error: unexpected symbol in "ggplot(df1,aes(x='Lead Studio', y='Rotten Tomatoes'.."
> ggplot(df1,aes(x='Lead Studio', y='Rotten Tomatoes'))+geom_point()+scale_y_continuous(labels=scales::comma)+coord_cartesian(ylim=c(0,110))+theme(axis.text.x=element_text(angle=90))
Error: Discrete value supplied to continuous scale
> ggplot(df1,aes(x=Year))+geom_bar()
> write.csv(df1,'clean_df.csv')
> df[complete.cases(df), ]
# A tibble: 69 × 8
   Film     Genre Lead …¹ Audie…² Profi…³ Rotte…⁴ World…⁵
   <chr>    <chr> <chr>     <dbl>   <dbl>   <dbl>   <dbl>
 1 27 Dres… Come… Fox          71  160.        40  160.  
 2 (500) D… Come… Fox          81   60.7       87   60.7 
 3 A Dange… Drama Indepe…      89    8.97      79    8.97
 4 A Serio… Drama Univer…      64   30.7       89   30.7 
 5 Across … Roma… Indepe…      84   29.4       54   29.4 
 6 Beginne… Come… Indepe…      80   14.3       84   14.3 
 7 Dear Jo… Drama Sony         66  115.        29  115.  
 8 Enchant… Come… Disney       80  340.        93  340.  
 9 Firepro… Drama Indepe…      51   33.5       40   33.5 
10 Four Ch… Come… Warner…      52  162.        26  162.  
# … with 59 more rows, 1 more variable: Year <dbl>, and
#   abbreviated variable names ¹​`Lead Studio`,
#   ²​`Audience  score %`, ³​Profitability,
#   ⁴​`Rotten Tomatoes %`, ⁵​`Worldwide Gross`
# ℹ Use `print(n = ...)` to see more rows, and `colnames()` to see all variable names
…
